// Jest Snapshot v1, https://goo.gl/fbAQLP

exports[`<AuthPage /> rendering 1`] = `
<AuthPage>
  <div
    className="GridLayout"
  >
    <div
      className="HomeLink"
    >
      <HomeLink>
        <a
          className="HomeLink"
          href="/music-learn"
        >
          <i
            className="HomeIcon"
          >
            <Home
              color="white"
              size={35}
            >
              <svg
                fill="none"
                height={35}
                stroke="white"
                strokeLinecap="round"
                strokeLinejoin="round"
                strokeWidth="2"
                viewBox="0 0 24 24"
                width={35}
                xmlns="http://www.w3.org/2000/svg"
              >
                <path
                  d="M3 9l9-7 9 7v11a2 2 0 0 1-2 2H5a2 2 0 0 1-2-2z"
                />
                <polyline
                  points="9 22 9 12 15 12 15 22"
                />
              </svg>
            </Home>
          </i>
          <h2
            className="HomeText"
          >
            Home
          </h2>
        </a>
      </HomeLink>
    </div>
    <div
      className="MainTitle"
      role="banner"
      tabIndex={0}
    >
      <MainTitle>
        <i>
          <Activity
            className="ActivityIcon"
            color="white"
            size={60}
          >
            <svg
              className="ActivityIcon"
              fill="none"
              height={60}
              stroke="white"
              strokeLinecap="round"
              strokeLinejoin="round"
              strokeWidth="2"
              viewBox="0 0 24 24"
              width={60}
              xmlns="http://www.w3.org/2000/svg"
            >
              <polyline
                points="22 12 18 12 15 21 9 3 6 12 2 12"
              />
            </svg>
          </Activity>
        </i>
        <h1
          className="TitleText"
        >
          MusicLearn
        </h1>
      </MainTitle>
    </div>
    <main
      className="SignIn"
    >
      <div />
    </main>
  </div>
</AuthPage>
`;
