// Jest Snapshot v1, https://goo.gl/fbAQLP

exports[`<ContactsPage /> rendering 1`] = `
<Provider
  store={
    Object {
      "@@observable": [Function],
      "dispatch": [Function],
      "getState": [Function],
      "replaceReducer": [Function],
      "subscribe": [Function],
    }
  }
>
  <ContactsPage>
    <div
      className="body"
    >
      <header
        className="header"
      >
        <div
          className="navigation"
        >
          <HomeLink>
            <a
              className="HomeLink"
              href="/music-learn"
            >
              <i
                className="HomeIcon"
              >
                <Home
                  color="white"
                  size={35}
                >
                  <svg
                    fill="none"
                    height={35}
                    stroke="white"
                    strokeLinecap="round"
                    strokeLinejoin="round"
                    strokeWidth="2"
                    viewBox="0 0 24 24"
                    width={35}
                    xmlns="http://www.w3.org/2000/svg"
                  >
                    <path
                      d="M3 9l9-7 9 7v11a2 2 0 0 1-2 2H5a2 2 0 0 1-2-2z"
                    />
                    <polyline
                      points="9 22 9 12 15 12 15 22"
                    />
                  </svg>
                </Home>
              </i>
              <h2
                className="HomeText"
              >
                Home
              </h2>
            </a>
          </HomeLink>
          <div
            className="links"
          >
            <Button
              color="white"
              height="auto"
              href="/music-learn/courses"
              text="Courses"
              type="underlined"
              width="auto"
            >
              <a
                href="/music-learn/courses"
              >
                <button
                  className="underlined_white_button"
                  style={
                    Object {
                      "height": "auto",
                      "width": "auto",
                    }
                  }
                  type="button"
                >
                  Courses
                </button>
              </a>
            </Button>
            <Button
              color="white"
              height="auto"
              href="/"
              text="Notes"
              type="underlined"
              width="auto"
            >
              <a
                href="/"
              >
                <button
                  className="underlined_white_button"
                  style={
                    Object {
                      "height": "auto",
                      "width": "auto",
                    }
                  }
                  type="button"
                >
                  Notes
                </button>
              </a>
            </Button>
            <Button
              color="white"
              height="auto"
              href="/music-learn/contacts"
              text="Contacts"
              type="underlined"
              width="auto"
            >
              <a
                href="/music-learn/contacts"
              >
                <button
                  className="underlined_white_button"
                  style={
                    Object {
                      "height": "auto",
                      "width": "auto",
                    }
                  }
                  type="button"
                >
                  Contacts
                </button>
              </a>
            </Button>
            <ProfileButton
              isAuthorized={false}
            >
              <div
                className="profile_dropdown"
              >
                <a
                  className="icon_button"
                  href="/music-learn/login"
                >
                  <User
                    size={35}
                  >
                    <svg
                      fill="none"
                      height={35}
                      stroke="currentColor"
                      strokeLinecap="round"
                      strokeLinejoin="round"
                      strokeWidth="2"
                      viewBox="0 0 24 24"
                      width={35}
                      xmlns="http://www.w3.org/2000/svg"
                    >
                      <path
                        d="M20 21v-2a4 4 0 0 0-4-4H8a4 4 0 0 0-4 4v2"
                      />
                      <circle
                        cx="12"
                        cy="7"
                        r="4"
                      />
                    </svg>
                  </User>
                </a>
                <div
                  className="dropdown_content"
                >
                  <Button
                    color="white"
                    height="auto"
                    href="/music-learn/login"
                    text="Sign In"
                    type="focused"
                    width="130px"
                  >
                    <a
                      href="/music-learn/login"
                    >
                      <button
                        className="focused_white_button"
                        style={
                          Object {
                            "height": "auto",
                            "width": "130px",
                          }
                        }
                        type="button"
                      >
                        Sign In
                      </button>
                    </a>
                  </Button>
                  <Button
                    color="pink"
                    height="auto"
                    href="/music-learn/register"
                    text="Sign Up"
                    type="filled"
                    width="130px"
                  >
                    <a
                      href="/music-learn/register"
                    >
                      <button
                        className="filled_pink_button"
                        style={
                          Object {
                            "height": "auto",
                            "width": "130px",
                          }
                        }
                        type="button"
                      >
                        Sign Up
                      </button>
                    </a>
                  </Button>
                </div>
              </div>
            </ProfileButton>
          </div>
        </div>
        <div
          role="banner"
        >
          <MainTitle>
            <i>
              <Activity
                className="ActivityIcon"
                color="white"
                size={60}
              >
                <svg
                  className="ActivityIcon"
                  fill="none"
                  height={60}
                  stroke="white"
                  strokeLinecap="round"
                  strokeLinejoin="round"
                  strokeWidth="2"
                  viewBox="0 0 24 24"
                  width={60}
                  xmlns="http://www.w3.org/2000/svg"
                >
                  <polyline
                    points="22 12 18 12 15 21 9 3 6 12 2 12"
                  />
                </svg>
              </Activity>
            </i>
            <h1
              className="TitleText"
            >
              MusicLearn
            </h1>
          </MainTitle>
        </div>
      </header>
      <main
        className="main"
      >
        <div>
          <div>
            <h1>
              About
            </h1>
            <p>
              MusicLearn is a web platform where people can learn how to play piano.
               
            </p>
            <p>
              The project was developed by MusicLearn team for Enterprise programming on JavaScript - Advanced course in Innopolis University (Spring semester 2021). Our team is presented by Anna Gorb, Marina Ivanova and Yulia Chukanova.
            </p>
          </div>
          <div>
            <h1>
              Resources
            </h1>
            <ul>
              <li>
                <Code
                  size={18}
                >
                  <svg
                    fill="none"
                    height={18}
                    stroke="currentColor"
                    strokeLinecap="round"
                    strokeLinejoin="round"
                    strokeWidth="2"
                    viewBox="0 0 24 24"
                    width={18}
                    xmlns="http://www.w3.org/2000/svg"
                  >
                    <polyline
                      points="16 18 22 12 16 6"
                    />
                    <polyline
                      points="8 6 2 12 8 18"
                    />
                  </svg>
                </Code>
                 Code can be observed in the
                 
                <a
                  href="https://bitbucket.org/kalmar953197/music-learn/src/master/"
                >
                  Bitbucket repo
                </a>
              </li>
              <li>
                <Figma
                  size={18}
                >
                  <svg
                    fill="none"
                    height={18}
                    stroke="currentColor"
                    strokeLinecap="round"
                    strokeLinejoin="round"
                    strokeWidth="2"
                    viewBox="0 0 24 24"
                    width={18}
                    xmlns="http://www.w3.org/2000/svg"
                  >
                    <path
                      d="M5 5.5A3.5 3.5 0 0 1 8.5 2H12v7H8.5A3.5 3.5 0 0 1 5 5.5z"
                    />
                    <path
                      d="M12 2h3.5a3.5 3.5 0 1 1 0 7H12V2z"
                    />
                    <path
                      d="M12 12.5a3.5 3.5 0 1 1 7 0 3.5 3.5 0 1 1-7 0z"
                    />
                    <path
                      d="M5 19.5A3.5 3.5 0 0 1 8.5 16H12v3.5a3.5 3.5 0 1 1-7 0z"
                    />
                    <path
                      d="M5 12.5A3.5 3.5 0 0 1 8.5 9H12v7H8.5A3.5 3.5 0 0 1 5 12.5z"
                    />
                  </svg>
                </Figma>
                 Design layouts are available on
                 
                <a
                  href="https://www.figma.com/file/82iw0bNHKEGw9HONbVq6Y5/music-learn?node-id=0%3A1"
                >
                  Figma
                </a>
              </li>
              <li>
                <Youtube
                  size={18}
                >
                  <svg
                    fill="none"
                    height={18}
                    stroke="currentColor"
                    strokeLinecap="round"
                    strokeLinejoin="round"
                    strokeWidth="2"
                    viewBox="0 0 24 24"
                    width={18}
                    xmlns="http://www.w3.org/2000/svg"
                  >
                    <path
                      d="M22.54 6.42a2.78 2.78 0 0 0-1.94-2C18.88 4 12 4 12 4s-6.88 0-8.6.46a2.78 2.78 0 0 0-1.94 2A29 29 0 0 0 1 11.75a29 29 0 0 0 .46 5.33A2.78 2.78 0 0 0 3.4 19c1.72.46 8.6.46 8.6.46s6.88 0 8.6-.46a2.78 2.78 0 0 0 1.94-2 29 29 0 0 0 .46-5.25 29 29 0 0 0-.46-5.33z"
                    />
                    <polygon
                      points="9.75 15.02 15.5 11.75 9.75 8.48 9.75 15.02"
                    />
                  </svg>
                </Youtube>
                 You can also check playlist with free courses on 
                <a
                  href="https://www.youtube.com"
                >
                  Youtube channel
                </a>
              </li>
            </ul>
          </div>
        </div>
        <div>
          <h1>
            Contacts
          </h1>
          <p>
            You can contact developers via mail:
            <ul>
              <li>
                <a
                  href="mailto:a.gorb@innopolis.university"
                >
                  a.gorb@innopolis.university
                </a>
              </li>
              <li>
                <a
                  href="mailto:m.ivanova@innopolis.university"
                >
                  m.ivanova@innopolis.university
                </a>
              </li>
              <li>
                <a
                  href="mailto:y.chukanova@innopolis.university"
                >
                  y.chukanova@innopolis.university
                </a>
              </li>
            </ul>
            or via telegram:
            <ul>
              <li>
                <a
                  href="https://t.me/AnutkaGorb"
                >
                  @AnutkaGorb
                </a>
              </li>
              <li>
                <a
                  href="https://t.me/mari1647iv"
                >
                  @mari1647iv
                </a>
              </li>
              <li>
                <a
                  href="https://t.me/julia953197"
                >
                  @julia953197
                </a>
              </li>
            </ul>
          </p>
          <p />
        </div>
      </main>
      <footer
        className="footer"
        id="contacts"
      >
        <div>
          <p>
            email: some@email
          </p>
          <p>
            phone: +79876543210
          </p>
        </div>
        <div
          className="media"
        >
          <i>
            <GitHub>
              <svg
                fill="none"
                height={24}
                stroke="currentColor"
                strokeLinecap="round"
                strokeLinejoin="round"
                strokeWidth="2"
                viewBox="0 0 24 24"
                width={24}
                xmlns="http://www.w3.org/2000/svg"
              >
                <path
                  d="M9 19c-5 1.5-5-2.5-7-3m14 6v-3.87a3.37 3.37 0 0 0-.94-2.61c3.14-.35 6.44-1.54 6.44-7A5.44 5.44 0 0 0 20 4.77 5.07 5.07 0 0 0 19.91 1S18.73.65 16 2.48a13.38 13.38 0 0 0-7 0C6.27.65 5.09 1 5.09 1A5.07 5.07 0 0 0 5 4.77a5.44 5.44 0 0 0-1.5 3.78c0 5.42 3.3 6.61 6.44 7A3.37 3.37 0 0 0 9 18.13V22"
                />
              </svg>
            </GitHub>
          </i>
          <i>
            <Figma>
              <svg
                fill="none"
                height={24}
                stroke="currentColor"
                strokeLinecap="round"
                strokeLinejoin="round"
                strokeWidth="2"
                viewBox="0 0 24 24"
                width={24}
                xmlns="http://www.w3.org/2000/svg"
              >
                <path
                  d="M5 5.5A3.5 3.5 0 0 1 8.5 2H12v7H8.5A3.5 3.5 0 0 1 5 5.5z"
                />
                <path
                  d="M12 2h3.5a3.5 3.5 0 1 1 0 7H12V2z"
                />
                <path
                  d="M12 12.5a3.5 3.5 0 1 1 7 0 3.5 3.5 0 1 1-7 0z"
                />
                <path
                  d="M5 19.5A3.5 3.5 0 0 1 8.5 16H12v3.5a3.5 3.5 0 1 1-7 0z"
                />
                <path
                  d="M5 12.5A3.5 3.5 0 0 1 8.5 9H12v7H8.5A3.5 3.5 0 0 1 5 12.5z"
                />
              </svg>
            </Figma>
          </i>
          <i>
            <Instagram>
              <svg
                fill="none"
                height={24}
                stroke="currentColor"
                strokeLinecap="round"
                strokeLinejoin="round"
                strokeWidth="2"
                viewBox="0 0 24 24"
                width={24}
                xmlns="http://www.w3.org/2000/svg"
              >
                <rect
                  height="20"
                  rx="5"
                  ry="5"
                  width="20"
                  x="2"
                  y="2"
                />
                <path
                  d="M16 11.37A4 4 0 1 1 12.63 8 4 4 0 0 1 16 11.37z"
                />
                <line
                  x1="17.5"
                  x2="17.51"
                  y1="6.5"
                  y2="6.5"
                />
              </svg>
            </Instagram>
          </i>
          <i>
            <Facebook>
              <svg
                fill="none"
                height={24}
                stroke="currentColor"
                strokeLinecap="round"
                strokeLinejoin="round"
                strokeWidth="2"
                viewBox="0 0 24 24"
                width={24}
                xmlns="http://www.w3.org/2000/svg"
              >
                <path
                  d="M18 2h-3a5 5 0 0 0-5 5v3H7v4h3v8h4v-8h3l1-4h-4V7a1 1 0 0 1 1-1h3z"
                />
              </svg>
            </Facebook>
          </i>
          <i>
            <Youtube>
              <svg
                fill="none"
                height={24}
                stroke="currentColor"
                strokeLinecap="round"
                strokeLinejoin="round"
                strokeWidth="2"
                viewBox="0 0 24 24"
                width={24}
                xmlns="http://www.w3.org/2000/svg"
              >
                <path
                  d="M22.54 6.42a2.78 2.78 0 0 0-1.94-2C18.88 4 12 4 12 4s-6.88 0-8.6.46a2.78 2.78 0 0 0-1.94 2A29 29 0 0 0 1 11.75a29 29 0 0 0 .46 5.33A2.78 2.78 0 0 0 3.4 19c1.72.46 8.6.46 8.6.46s6.88 0 8.6-.46a2.78 2.78 0 0 0 1.94-2 29 29 0 0 0 .46-5.25 29 29 0 0 0-.46-5.33z"
                />
                <polygon
                  points="9.75 15.02 15.5 11.75 9.75 8.48 9.75 15.02"
                />
              </svg>
            </Youtube>
          </i>
          <i>
            <Mail>
              <svg
                fill="none"
                height={24}
                stroke="currentColor"
                strokeLinecap="round"
                strokeLinejoin="round"
                strokeWidth="2"
                viewBox="0 0 24 24"
                width={24}
                xmlns="http://www.w3.org/2000/svg"
              >
                <path
                  d="M4 4h16c1.1 0 2 .9 2 2v12c0 1.1-.9 2-2 2H4c-1.1 0-2-.9-2-2V6c0-1.1.9-2 2-2z"
                />
                <polyline
                  points="22,6 12,13 2,6"
                />
              </svg>
            </Mail>
          </i>
        </div>
        <div
          className="contacts"
        >
          <p>
            © 2021 «MusicLearn»
          </p>
          <p>
            Developed by MusicLearn team, Innopolis University
          </p>
        </div>
      </footer>
    </div>
  </ContactsPage>
</Provider>
`;
