// Jest Snapshot v1, https://goo.gl/fbAQLP

exports[`<Form /> rendering lock 1`] = `
<Form
  icon={
    <Lock
      color="white"
      size={45}
    />
  }
  placeholder="placeholder_test"
  type="type_test"
>
  <div
    className="FormWrapper"
  >
    <i
      className="Icon"
    >
      <Lock
        color="white"
        size={45}
      >
        <svg
          fill="none"
          height={45}
          stroke="white"
          strokeLinecap="round"
          strokeLinejoin="round"
          strokeWidth="2"
          viewBox="0 0 24 24"
          width={45}
          xmlns="http://www.w3.org/2000/svg"
        >
          <rect
            height="11"
            rx="2"
            ry="2"
            width="18"
            x="3"
            y="11"
          />
          <path
            d="M7 11V7a5 5 0 0 1 10 0v4"
          />
        </svg>
      </Lock>
    </i>
    <label
      className="FormLabel"
      htmlFor="placeholder_test"
    >
      placeholder_test
    </label>
    <input
      autoComplete="off"
      className="Form"
      id="placeholder_test"
      name="placeholder_test"
      placeholder="placeholder_test"
      type="type_test"
    />
  </div>
</Form>
`;

exports[`<Form /> rendering mail 1`] = `
<Form
  icon={
    <Mail
      color="white"
      size={45}
    />
  }
  placeholder="placeholder_test"
  type="type_test"
>
  <div
    className="FormWrapper"
  >
    <i
      className="Icon"
    >
      <Mail
        color="white"
        size={45}
      >
        <svg
          fill="none"
          height={45}
          stroke="white"
          strokeLinecap="round"
          strokeLinejoin="round"
          strokeWidth="2"
          viewBox="0 0 24 24"
          width={45}
          xmlns="http://www.w3.org/2000/svg"
        >
          <path
            d="M4 4h16c1.1 0 2 .9 2 2v12c0 1.1-.9 2-2 2H4c-1.1 0-2-.9-2-2V6c0-1.1.9-2 2-2z"
          />
          <polyline
            points="22,6 12,13 2,6"
          />
        </svg>
      </Mail>
    </i>
    <label
      className="FormLabel"
      htmlFor="placeholder_test"
    >
      placeholder_test
    </label>
    <input
      autoComplete="off"
      className="Form"
      id="placeholder_test"
      name="placeholder_test"
      placeholder="placeholder_test"
      type="type_test"
    />
  </div>
</Form>
`;

exports[`<Form /> rendering user 1`] = `
<Form
  icon={
    <User
      color="white"
      size={45}
    />
  }
  placeholder="placeholder_test"
  type="type_test"
>
  <div
    className="FormWrapper"
  >
    <i
      className="Icon"
    >
      <User
        color="white"
        size={45}
      >
        <svg
          fill="none"
          height={45}
          stroke="white"
          strokeLinecap="round"
          strokeLinejoin="round"
          strokeWidth="2"
          viewBox="0 0 24 24"
          width={45}
          xmlns="http://www.w3.org/2000/svg"
        >
          <path
            d="M20 21v-2a4 4 0 0 0-4-4H8a4 4 0 0 0-4 4v2"
          />
          <circle
            cx="12"
            cy="7"
            r="4"
          />
        </svg>
      </User>
    </i>
    <label
      className="FormLabel"
      htmlFor="placeholder_test"
    >
      placeholder_test
    </label>
    <input
      autoComplete="off"
      className="Form"
      id="placeholder_test"
      name="placeholder_test"
      placeholder="placeholder_test"
      type="type_test"
    />
  </div>
</Form>
`;
